astroid==2.1.0
autopep8==1.4.3
blessings==1.7
bpython==0.17.1
Brlapi==0.6.5
chardet==2.3.0
Click==7.0
cryptography==1.7.1
cupshelpers==1.0
curtsies==0.3.0
Faker==1.0.0
Flask==1.0.2
greenlet==0.4.15
httplib2==0.9.2
idna==2.2
isort==4.3.4
itsdangerous==1.1.0
Jinja2==2.10
keyring==10.1
keyrings.alt==1.3
lazy-object-proxy==1.3.1
louis==3.0.0
MarkupSafe==1.1.0
mccabe==0.6.1
pyasn1==0.1.9
pycodestyle==2.4.0
pycrypto==2.6.1
pycups==1.9.73
pycurl==7.43.0
Pygments==2.3.0
pygobject==3.22.0
pylint==2.2.2
pymongo==3.7.2
pysmbc==1.0.15.6
python-apt==1.4.0b2
python-dateutil==2.7.5
python-debian==0.1.30
python-debianbts==2.6.1
python-xlib==0.14
pyxdg==0.25
reportbug==7.1.5
requests==2.12.4
SecretStorage==2.3.1
setproctitle==1.1.10
six==1.11.0
text-unidecode==1.2
typed-ast==1.1.0
typing==3.6.6
urllib3==1.19.1
wcwidth==0.1.7
Werkzeug==0.14.1
wrapt==1.10.11
youtube-dl==2017.2.7
